Journal (reproducible report)
…
# 3.0 Function to retrieve bike URLS of every single bike model using the Category URLS ---
get_all_urls <- function(bike_main_url){
  
  html_bike_category <- read_html(bike_main_url)
  
  bike_model_url_tbl <- html_bike_category %>%
    html_nodes(css = ".row .align-middle > a") %>%
    html_attr("href") %>%
    enframe(name = "position", value = "bike_model_url")%>%
    mutate(bike_model_url = glue("{url_home_rose}{bike_model_url}"))
}

In this step I retrieved the URLs of all bikes. Therefore, I am able to scrap the process of every single bike on this website. Later on, the bikes names will be matched with their specific family and their model. Here as well, only the first ten rows will be shown.

## # A tibble: 33 x 2
##    position bike_model_url                                                      
##       <int> <glue>                                                              
##  1        1 https://www.rosebikes.de/fahrräder/mtb/trail-/-enduro/ground-control
##  2        2 https://www.rosebikes.de/fahrräder/mtb/trail-/-enduro/root-miller   
##  3        3 https://www.rosebikes.de/fahrräder/mtb/trail-/-enduro/pikes-peak    
##  4        4 https://www.rosebikes.de/fahrräder/mtb/dirt/the-bruce               
##  5        5 https://www.rosebikes.de/fahrräder/mtb/cross-country/count-solo     
##  6        6 https://www.rosebikes.de/fahrräder/mtb/cross-country/psycho-path    
##  7        7 https://www.rosebikes.de/fahrräder/mtb/cross-country/thrill-hill    
##  8        8 https://www.rosebikes.de/fahrräder/mtb/cross-country/thrill-hill-tr…
##  9        9 https://www.rosebikes.de/fahrräder/mtb/freeride/soul-fire           
## 10        1 https://www.rosebikes.de/fahrräder/rennrad/endurance/pro-sl-disc    
## # … with 23 more rows
…
  # Joint Table of bike prices and names
  bike_tbl <- bike_model_name_tbl %>%
    left_join(bike_model_price_tbl)
  
  # Add Bike Families and Models to bike_table
  bike_tbl <- bike_tbl %>%
    mutate(Family = bike_fam_mod_tbll$Category[3],
           Model = bike_fam_mod_tbl$Category[4]) %>%
    select(position, Family, Model, Name, Price_in_Euro)
}

Here all needed data was retrieved. This process is shown in the get_bike_data function. The Price_in_Euro of each individual bike, their main category Family and they model types Model. In the end all bikes and their specific data were merged in one table called all_bike_data_tbl.

## # A tibble: 104 x 4
##    Family Model          Name             Price_in_Euro
##    <chr>  <chr>          <chr>                    <dbl>
##  1 MTB    Trail / Enduro GROUND CONTROL 1          1699
##  2 MTB    Trail / Enduro GROUND CONTROL 2          1999
##  3 MTB    Trail / Enduro GROUND CONTROL 3          2599
##  4 MTB    Trail / Enduro GROUND CONTROL 4          3299
##  5 MTB    Trail / Enduro ROOT MILLER 1             1999
##  6 MTB    Trail / Enduro ROOT MILLER 2             2599
##  7 MTB    Trail / Enduro ROOT MILLER 3             3399
##  8 MTB    Trail / Enduro PIKES PEAK 1              3099
##  9 MTB    Trail / Enduro PIKES PEAK 2              3599
## 10 MTB    Trail / Enduro PIKES PEAK 3              4299
## # … with 94 more rows
…
